"SKU Message","Legacy OrderId","Order Created Date/Time"
"SM--18-12 for the Rigid process.",74387040,"7/18/2018 7:31:57 PM"
"SM--24-18 for the Rigid process.",74387033,"7/18/2018 7:21:25 PM"
"SM--96-120 for the Fabrics process.",74385659,"7/18/2018 1:12:57 PM"
"SM--18-12 for the Rigid process.",74385127,"7/18/2018 10:03:55 AM"
"AC-XXXXXXXX for the Rigid process.",74386232,"7/18/2018 4:00:01 PM"
"SM--12-18 for the Rigid process.",74384834,"7/18/2018 6:53:03 AM"
"SM--6-24 for the Rigid process.",74387471,"7/19/2018 8:56:26 AM"
"SM--18-12 for the Rigid process.",74385690,"7/18/2018 1:24:35 PM"
"SM--6-24 for the Rigid process.",74387465,"7/19/2018 8:51:55 AM"
"SM--18-12 for the Rigid process.",74384896,"7/18/2018 8:26:13 AM"
"SM--18-30 for the Rigid process.",74385743,"7/18/2018 1:39:42 PM"
"AC-68DDAB01-A8C3-49FE-98CE-8EF33901E59C for the Rigid process.",74385913,"7/18/2018 2:35:44 PM"
"SM--18-12 for the Rigid process.",74386873,"7/18/2018 5:27:25 PM"
"SM--96-120 for the Fabrics process.",74387064,"7/18/2018 7:52:09 PM"
"SM--18-12 for the Rigid process.",74387474,"7/19/2018 8:58:07 AM"
"SM--6-24 for the Rigid process.",74387586,"7/19/2018 9:53:33 AM"
"SM--96-144 for the Fabrics process.",74388117,"7/19/2018 1:28:35 PM"
"SM--18-12 for the Rigid process.",74385293,"7/18/2018 11:09:59 AM"
"SM-AL063PC-18-30 for the Rigid process.",74389477,"7/20/2018 10:38:59 AM"
"SM--6-24 for the Rigid process.",74384860,"7/18/2018 7:32:34 AM"
"SM-AL063PC-18-24 for the Rigid process.",74388973,"7/19/2018 8:39:36 PM"
"SM--96-120 for the Fabrics process.",74389082,"7/19/2018 10:45:35 PM"
"SM--24-18 for the Rigid process.",74385238,"7/18/2018 10:44:37 AM"
"SM--18-24 for the Rigid process.",74385026,"7/18/2018 9:37:56 AM"
"AC-XXXXXXXX for the Rigid process.",74390002,"7/20/2018 2:49:38 PM"
"AC-XXXXXXXX for the Rigid process.",74384923,"7/18/2018 8:46:31 AM"
"SM--12-18 for the Rigid process.",74385310,"7/18/2018 11:15:40 AM"
"SM--18-12 for the Rigid process.",74385474,"7/18/2018 12:13:10 PM"
"SM--18-30 for the Rigid process.",74385547,"7/18/2018 12:33:34 PM"
"SM--18-12 for the Rigid process.",74385158,"7/18/2018 10:16:27 AM"
"SM-AL063PC-6-24 for the Rigid process.",74387769,"7/19/2018 11:36:26 AM"
"AC-NA1234 for the Rigid process.",74389238,"7/20/2018 8:09:20 AM"
"SM-AL063PC-24-24 for the Rigid process.",74388752,"7/19/2018 5:33:08 PM"
"SM-AL063PC-24-18 for the Rigid process.",74392658,"7/23/2018 10:48:50 AM"
"SM--18-12 for the Rigid process.",74385239,"7/18/2018 10:44:45 AM"
"AC-XXXXXXXX for the Rigid process.",74384913,"7/18/2018 8:38:43 AM"
"SM--18-24 for the Rigid process.",74385627,"7/18/2018 1:01:43 PM"
"SM-AL063PC-6-24 for the Rigid process.",74389723,"7/20/2018 12:43:15 PM"
"AC-XXXXXXXX for the Rigid process.",74390145,"7/20/2018 3:26:28 PM"
"AC-XXXXXXXX for the Rigid process.",74388324,"7/19/2018 2:51:24 PM"
"OS-AC-141NS for the Outsourced process.",74393435,"7/23/2018 3:22:26 PM"
"OS-AC-141NS for the Outsourced process.",74393467,"7/23/2018 3:22:35 PM"
"SM-AL063PC-18-30 for the Rigid process.",74390414,"7/20/2018 5:39:48 PM"
"OS-AC-14PT-BCAQ-2X3.5 for the Outsourced process.",74393615,"7/23/2018 3:58:21 PM"
"SM--96-144 for the Fabrics process.",74387072,"7/18/2018 7:58:59 PM"
"SM--18-12 for the Rigid process.",74385570,"7/18/2018 12:39:57 PM"
"SM-AL063PC-6-24 for the Rigid process.",74393384,"7/23/2018 3:14:04 PM"
"AC-C256 for the Rigid process.",74390540,"7/20/2018 7:49:37 PM"
"SM--18-24 for the Rigid process.",74385155,"7/18/2018 10:15:56 AM"
"AC-68DDAB01-A8C3-49FE-98CE-8EF33901E59C for the Rigid process.",74385770,"7/18/2018 1:47:29 PM"
"OS-AC-TRP2-6-S for the Outsourced process.",74395402,"7/24/2018 2:56:52 PM"
"AC-NA1234 for the Rigid process.",74395044,"7/24/2018 12:34:15 PM"
"AC-C256 for the Rigid process.",74388678,"7/19/2018 4:39:43 PM"
"SM-AL063PC-6-24 for the Rigid process.",74395147,"7/24/2018 1:19:20 PM"
"AC-XXXXXXXX for the Rigid process.",74390611,"7/20/2018 9:27:47 PM"
"AC-C094 for the BullSteel process.",74396218,"7/24/2018 11:09:20 PM"
