"SKU Message","Legacy OrderId","Order Created Date/Time"
"SM-RFAL080-5-18 for the Rigid process.",74387483,"7/19/2018 9:05:18 AM"
"SM-AL040-18-12 for the Rigid process.",74387486,"7/19/2018 9:07:31 AM"
"SM-AL040-18-24 for the Rigid process.",74387491,"7/19/2018 9:08:51 AM"
"SM-AL040-18-12 for the Rigid process.",74387499,"7/19/2018 9:11:18 AM"
"SM-AL040-6-12 for the Rigid process.",74387501,"7/19/2018 9:14:00 AM"
"SM-AL040-24-36 for the Rigid process.",74387504,"7/19/2018 9:14:55 AM"
"SM-AL040-30-24 for the Rigid process.",74387508,"7/19/2018 9:19:19 AM"
"SM-RFAL040-30-24 for the Rigid process.",74387514,"7/19/2018 9:21:01 AM"
"SM-AL040-6-12 for the Rigid process.",74387520,"7/19/2018 9:22:32 AM"
"SM-AL040PC-24-24 for the Rigid process.",74387524,"7/19/2018 9:24:20 AM"
"SM-AL040-6-12 for the Rigid process.",74387529,"7/19/2018 9:26:28 AM"
"SM-AL040-18-12 for the Rigid process.",74387532,"7/19/2018 9:26:52 AM"
"SM-AL040-30-24 for the Rigid process.",74387541,"7/19/2018 9:33:29 AM"
"SM-AL040-5-18 for the Rigid process.",74387546,"7/19/2018 9:35:01 AM"
"SM-AL040-18-12 for the Rigid process.",74387553,"7/19/2018 9:38:57 AM"
"SM-AL040PC-6-24 for the Rigid process.",74387556,"7/19/2018 9:39:58 AM"
"SM-AL040-6-12 for the Rigid process.",74387563,"7/19/2018 9:43:22 AM"
"SM-AL040-24-24 for the Rigid process.",74387567,"7/19/2018 9:44:31 AM"
"SM-AL040-18-12 for the Rigid process.",74387570,"7/19/2018 9:47:36 AM"
"SM-AL040-18-12 for the Rigid process.",74387575,"7/19/2018 9:48:54 AM"
"SM-AL040-6-12 for the Rigid process.",74387578,"7/19/2018 9:49:40 AM"
"SM-AL040-18-12 for the Rigid process.",74387584,"7/19/2018 9:52:07 AM"
"SM--6-24 for the Rigid process.",74387586,"7/19/2018 9:53:33 AM"
"SM-RFAL040-5-18 for the Rigid process.",74387592,"7/19/2018 9:57:15 AM"
"SM-AL040-18-12 for the Rigid process.",74387593,"7/19/2018 9:57:25 AM"
"SM-AL040PC-18-24 for the Rigid process.",74387596,"7/19/2018 9:58:39 AM"
"SM-AL040-6-24 for the Rigid process.",74387595,"7/19/2018 9:58:38 AM"
"SM-AL040-24-36 for the Rigid process.",74387597,"7/19/2018 9:59:27 AM"
"SM-AL040-18-24 for the Rigid process.",74387600,"7/19/2018 10:01:10 AM"
"SM-AL040-6-24 for the Rigid process.",74387602,"7/19/2018 10:01:31 AM"
"SM-RFAL080-5-18 for the Rigid process.",74387603,"7/19/2018 10:01:46 AM"
"SM-AL040-24-36 for the Rigid process.",74387609,"7/19/2018 10:02:40 AM"
"SM-AL040-24-24 for the Rigid process.",74387610,"7/19/2018 10:02:57 AM"
"SM-RFAL040-24-18 for the Rigid process.",74387611,"7/19/2018 10:03:58 AM"
"SM-AL040-6-24 for the Rigid process.",74387614,"7/19/2018 10:05:29 AM"
"SM-AL040-18-12 for the Rigid process.",74387617,"7/19/2018 10:08:01 AM"
"SM-AL040-6-12 for the Rigid process.",74387619,"7/19/2018 10:08:38 AM"
"SM-AL040-18-24 for the Rigid process.",74387626,"7/19/2018 10:13:50 AM"
"SM-AL040-18-12 for the Rigid process.",74387630,"7/19/2018 10:15:33 AM"
"SM-AL040-18-12 for the Rigid process.",74387640,"7/19/2018 10:18:13 AM"
"SM-AL040-18-12 for the Rigid process.",74387646,"7/19/2018 10:21:04 AM"
"SM-RFAL040-18-12 for the Rigid process.",74387652,"7/19/2018 10:23:06 AM"
"SM-AL040-6-12 for the Rigid process.",74387661,"7/19/2018 10:26:09 AM"
"SM-AL040-18-12 for the Rigid process.",74387662,"7/19/2018 10:26:34 AM"
"SM-AL040-6-12 for the Rigid process.",74387663,"7/19/2018 10:26:41 AM"
"SM-RFAL040-6-30 for the Rigid process.",74387664,"7/19/2018 10:26:49 AM"
"SM-AL040-18-24 for the Rigid process.",74387665,"7/19/2018 10:26:54 AM"
"SM-AL040-6-12 for the Rigid process.",74387668,"7/19/2018 10:27:36 AM"
"SM-AL040-18-24 for the Rigid process.",74387670,"7/19/2018 10:27:39 AM"
"SM-AL040PC-24-24 for the Rigid process.",74387687,"7/19/2018 10:53:12 AM"
"SM-AL040-36-24 for the Rigid process.",74387688,"7/19/2018 10:53:32 AM"
"SM-AL040-6-12 for the Rigid process.",74387694,"7/19/2018 10:56:04 AM"
"SM-AL040-30-24 for the Rigid process.",74387699,"7/19/2018 11:00:45 AM"
"SM-AL040-6-30 for the Rigid process.",74387701,"7/19/2018 11:01:00 AM"
"SM-AL040-18-12 for the Rigid process.",74387703,"7/19/2018 11:01:11 AM"
"SM-RFAL040-5-18 for the Rigid process.",74387705,"7/19/2018 11:02:03 AM"
"SM-RFAL040-18-24 for the Rigid process.",74387706,"7/19/2018 11:02:55 AM"
"SM-AL040-5-18 for the Rigid process.",74387708,"7/19/2018 11:04:26 AM"
"SM-RFAL040-24-18 for the Rigid process.",74387711,"7/19/2018 11:07:32 AM"
"SM-AL040-18-24 for the Rigid process.",74387721,"7/19/2018 11:12:19 AM"
"SM-AL040-6-12 for the Rigid process.",74387730,"7/19/2018 11:18:00 AM"
"SM-AL040-6-24 for the Rigid process.",74387738,"7/19/2018 11:21:34 AM"
"SM-AL040-5-18 for the Rigid process.",74387740,"7/19/2018 11:22:42 AM"
"SM-AL040-24-24 for the Rigid process.",74387748,"7/19/2018 11:26:01 AM"
"SM-AL040-6-24 for the Rigid process.",74387751,"7/19/2018 11:27:19 AM"
"SM-AL040-6-12 for the Rigid process.",74387754,"7/19/2018 11:28:37 AM"
"SM-AL040-6-12 for the Rigid process.",74387757,"7/19/2018 11:31:34 AM"
"SM-AL040PC-30-24 for the Rigid process.",74387760,"7/19/2018 11:32:26 AM"
"SM-AL040-12-18 for the Rigid process.",74387762,"7/19/2018 11:33:45 AM"
"SM-RFAL080-5-18 for the Rigid process.",74387763,"7/19/2018 11:34:16 AM"
"SM-AL040-18-12 for the Rigid process.",74387765,"7/19/2018 11:35:02 AM"
"SM-AL040PC-18-30 for the Rigid process.",74387767,"7/19/2018 11:35:14 AM"
"OA-SignDesignServiceFee for the Outsourced process.",74387768,"7/19/2018 11:36:06 AM"
"SM-AL040PC-18-24 for the Rigid process.",74387769,"7/19/2018 11:36:26 AM"
"SM-RFAL040-6-18 for the Rigid process.",74387775,"7/19/2018 11:38:20 AM"
"SM-AL040-18-12 for the Rigid process.",74387777,"7/19/2018 11:38:52 AM"
"SM-AL040-18-12 for the Rigid process.",74387778,"7/19/2018 11:40:05 AM"
"SM-AL040-18-12 for the Rigid process.",74387780,"7/19/2018 11:40:39 AM"
"SM-AL040-6-18 for the Rigid process.",74387781,"7/19/2018 11:40:43 AM"
"SM-AL040-18-12 for the Rigid process.",74387782,"7/19/2018 11:41:34 AM"
"SM-AL040-9-12 for the Rigid process.",74387803,"7/19/2018 11:47:05 AM"
"SM-RFAL040-18-24 for the Rigid process.",74387804,"7/19/2018 11:47:09 AM"
"SM-AL040-18-12 for the Rigid process.",74387805,"7/19/2018 11:47:41 AM"
"SM-AL040-5-18 for the Rigid process.",74387806,"7/19/2018 11:47:52 AM"
"SM-AL040-18-12 for the Rigid process.",74387807,"7/19/2018 11:47:54 AM"
"SM-AL040-6-12 for the Rigid process.",74387815,"7/19/2018 11:49:59 AM"
"SM-AL040-18-12 for the Rigid process.",74387816,"7/19/2018 11:50:03 AM"
"SM-AL040-18-30 for the Rigid process.",74387823,"7/19/2018 11:52:00 AM"
"SM-RFAL040-24-30 for the Rigid process.",74387825,"7/19/2018 11:52:23 AM"
"SM-AL040-18-24 for the Rigid process.",74387842,"7/19/2018 11:56:19 AM"
"SM-AL040-6-12 for the Rigid process.",74387849,"7/19/2018 11:57:29 AM"
"SM-AL040PC-6-24 for the Rigid process.",74387868,"7/19/2018 12:04:17 PM"
"SM-AL040PC-18-24 for the Rigid process.",74387874,"7/19/2018 12:06:56 PM"
"SM-AL040-18-24 for the Rigid process.",74387878,"7/19/2018 12:08:23 PM"
"SM-AL040PC-6-24 for the Rigid process.",74387879,"7/19/2018 12:08:51 PM"
"SM-AL040-18-24 for the Rigid process.",74387880,"7/19/2018 12:09:18 PM"
"SM-FF-158.48-33.46 for the Fabrics process.",74387881,"7/19/2018 12:09:35 PM"
"SM-RFAL040-18-24 for the Rigid process.",74387884,"7/19/2018 12:11:07 PM"
"SM-AL040-6-12 for the Rigid process.",74387895,"7/19/2018 12:15:18 PM"
"SM-AL040PC-18-24 for the Rigid process.",74387897,"7/19/2018 12:15:34 PM"
"SM-AL040-18-12 for the Rigid process.",74387899,"7/19/2018 12:16:02 PM"
"SM-RFAL040-30-24 for the Rigid process.",74387905,"7/19/2018 12:18:02 PM"
"SM-AL040-30-24 for the Rigid process.",74387928,"7/19/2018 12:19:33 PM"
"SM-AL040-18-12 for the Rigid process.",74387944,"7/19/2018 12:25:27 PM"
"SM-AL040-18-24 for the Rigid process.",74387948,"7/19/2018 12:26:50 PM"
"SM-AL040-6-12 for the Rigid process.",74387952,"7/19/2018 12:27:29 PM"
"SM-AL040-12-18 for the Rigid process.",74387956,"7/19/2018 12:28:23 PM"
"SM-AL040PC-18-24 for the Rigid process.",74387955,"7/19/2018 12:28:22 PM"
"SM-AL040PC-24-24 for the Rigid process.",74387964,"7/19/2018 12:33:46 PM"
"SM-AL040-18-12 for the Rigid process.",74387965,"7/19/2018 12:33:48 PM"
"SM-AL040PC-18-24 for the Rigid process.",74387969,"7/19/2018 12:34:58 PM"
"SM-AL040-6-12 for the Rigid process.",74387984,"7/19/2018 12:43:00 PM"
"SM-AL040-6-12 for the Rigid process.",74387986,"7/19/2018 12:44:13 PM"
"SM-AL040-12-18 for the Rigid process.",74387993,"7/19/2018 12:46:45 PM"
"SM-AL040-36-24 for the Rigid process.",74388005,"7/19/2018 12:50:05 PM"
"SM-AL040-6-12 for the Rigid process.",74388007,"7/19/2018 12:50:41 PM"
"SM-AL040-18-12 for the Rigid process.",74388028,"7/19/2018 12:54:32 PM"
"SM-AL040-18-30 for the Rigid process.",74388042,"7/19/2018 12:59:50 PM"
"SM-AL040-18-24 for the Rigid process.",74388048,"7/19/2018 1:01:35 PM"
"SM-AL040-6-12 for the Rigid process.",74388050,"7/19/2018 1:01:56 PM"
"SM-AL040-24-36 for the Rigid process.",74388067,"7/19/2018 1:09:20 PM"
"SM-AL040-6-24 for the Rigid process.",74388069,"7/19/2018 1:11:03 PM"
"SM-AL040-24-18 for the Rigid process.",74388071,"7/19/2018 1:11:45 PM"
"SM-RFAL080-18-12 for the Rigid process.",74388073,"7/19/2018 1:12:08 PM"
"SM-AL040-18-24 for the Rigid process.",74388076,"7/19/2018 1:13:02 PM"
"SM-AL040-6-12 for the Rigid process.",74388082,"7/19/2018 1:14:15 PM"
"SM-AL040-18-12 for the Rigid process.",74388085,"7/19/2018 1:16:53 PM"
"SM-RFAL040-18-12 for the Rigid process.",74388094,"7/19/2018 1:20:58 PM"
"SM-AL040-9-12 for the Rigid process.",74388097,"7/19/2018 1:21:21 PM"
"SM-AL040PC-18-24 for the Rigid process.",74388108,"7/19/2018 1:26:11 PM"
"SM-RFAL040-18-24 for the Rigid process.",74388114,"7/19/2018 1:28:02 PM"
"SM--96-144 for the Fabrics process.",74388117,"7/19/2018 1:28:35 PM"
"SM-AL040PC-18-30 for the Rigid process.",74388119,"7/19/2018 1:29:11 PM"
"SM-AL040-6-24 for the Rigid process.",74388122,"7/19/2018 1:29:59 PM"
"SM-RFAL040-5-18 for the Rigid process.",74388126,"7/19/2018 1:31:17 PM"
"SM-AL040-24-24 for the Rigid process.",74388134,"7/19/2018 1:33:52 PM"
"SM-AL040PC-24-18 for the Rigid process.",74388143,"7/19/2018 1:37:37 PM"
"SM-AL040PC-6-30 for the Rigid process.",74388147,"7/19/2018 1:38:05 PM"
"SM-AL040PC-6-30 for the Rigid process.",74388158,"7/19/2018 1:41:54 PM"
"SM-AL040-6-12 for the Rigid process.",74388164,"7/19/2018 1:43:43 PM"
"SM-AL040-6-12 for the Rigid process.",74388172,"7/19/2018 1:46:24 PM"
"SM-AL040-18-12 for the Rigid process.",74388176,"7/19/2018 1:47:33 PM"
"SM-RFAL040-18-24 for the Rigid process.",74388179,"7/19/2018 1:49:46 PM"
"SM-AL040-6-12 for the Rigid process.",74388184,"7/19/2018 1:52:40 PM"
"SM-AL040-6-12 for the Rigid process.",74388192,"7/19/2018 1:55:41 PM"
"SM-AL040PC-18-24 for the Rigid process.",74388197,"7/19/2018 1:56:55 PM"
"SM-AL040-6-24 for the Rigid process.",74388205,"7/19/2018 1:58:55 PM"
"SM-AL040PC-24-18 for the Rigid process.",74388208,"7/19/2018 1:59:27 PM"
"SM-RFAL040-18-12 for the Rigid process.",74388211,"7/19/2018 2:01:18 PM"
"SM-RFAL040-18-24 for the Rigid process.",74388219,"7/19/2018 2:03:46 PM"
"SM-AL040-18-12 for the Rigid process.",74388225,"7/19/2018 2:06:25 PM"
"SM-AL040-18-12 for the Rigid process.",74388229,"7/19/2018 2:07:20 PM"
"SM-AL040-6-12 for the Rigid process.",74388238,"7/19/2018 2:12:14 PM"
"SM-AL040-18-24 for the Rigid process.",74388240,"7/19/2018 2:12:49 PM"
"SM-AL040PC-24-30 for the Rigid process.",74388250,"7/19/2018 2:16:29 PM"
"SM-AL040-24-18 for the Rigid process.",74388253,"7/19/2018 2:17:18 PM"
"SM-AL040-24-36 for the Rigid process.",74388258,"7/19/2018 2:20:09 PM"
"SM-AL040PC-30-24 for the Rigid process.",74388259,"7/19/2018 2:20:35 PM"
"SM-AL040-6-24 for the Rigid process.",74388264,"7/19/2018 2:22:04 PM"
"SM-RFAL040-6-24 for the Rigid process.",74388265,"7/19/2018 2:23:18 PM"
"SM-AL040-24-24 for the Rigid process.",74388269,"7/19/2018 2:25:11 PM"
"SM-AL040-30-24 for the Rigid process.",74388273,"7/19/2018 2:27:26 PM"
"SM-RFAL080-18-12 for the Rigid process.",74388277,"7/19/2018 2:28:01 PM"
"SM-AL040-6-12 for the Rigid process.",74388281,"7/19/2018 2:29:48 PM"
"SM-AL040-6-12 for the Rigid process.",74388286,"7/19/2018 2:35:19 PM"
"SM-AL040-9-12 for the Rigid process.",74388294,"7/19/2018 2:39:03 PM"
"SM-AL040-18-12 for the Rigid process.",74388276,"7/19/2018 2:27:54 PM"
"SM-AL040-24-18 for the Rigid process.",74388272,"7/19/2018 2:27:17 PM"
"SM-AL040-18-12 for the Rigid process.",74388308,"7/19/2018 2:45:06 PM"
"SM-AL040PC-18-30 for the Rigid process.",74388309,"7/19/2018 2:46:02 PM"
"SM-AL040-6-24 for the Rigid process.",74388324,"7/19/2018 2:51:24 PM"
"SM-AL040-6-30 for the Rigid process.",74388325,"7/19/2018 2:51:49 PM"
"SM-AL040-6-12 for the Rigid process.",74388332,"7/19/2018 2:54:39 PM"
"SM-AL040-6-12 for the Rigid process.",74388335,"7/19/2018 2:55:51 PM"
"SM-AL040-18-24 for the Rigid process.",74388345,"7/19/2018 2:59:31 PM"
"SM-AL040-18-12 for the Rigid process.",74388348,"7/19/2018 3:02:50 PM"
"SM-AL040-6-12 for the Rigid process.",74388353,"7/19/2018 3:04:04 PM"
"SM-AL040PC-18-24 for the Rigid process.",74388356,"7/19/2018 3:04:45 PM"
"SM-AL040PC-24-18 for the Rigid process.",74388363,"7/19/2018 3:08:27 PM"
"SM-AL040-5-18 for the Rigid process.",74388365,"7/19/2018 3:08:59 PM"
"SM-AL040-24-24 for the Rigid process.",74388370,"7/19/2018 3:10:21 PM"
"SM-RFAL040-6-24 for the Rigid process.",74388379,"7/19/2018 3:12:51 PM"
"OA-FinishingFee for the Outsourced process.",74388386,"7/19/2018 3:14:46 PM"
"SM-AL040-6-12 for the Rigid process.",74388387,"7/19/2018 3:14:57 PM"
"SM-AL040-6-12 for the Rigid process.",74388388,"7/19/2018 3:15:17 PM"
"SM-AL040-5-18 for the Rigid process.",74388459,"7/19/2018 3:17:32 PM"
"SM-RFAL040-5-18 for the Rigid process.",74388471,"7/19/2018 3:17:38 PM"
"SM-AL040-5-18 for the Rigid process.",74388472,"7/19/2018 3:17:39 PM"
"SM-AL040-5-18 for the Rigid process.",74388475,"7/19/2018 3:17:40 PM"
"SM-AL040-5-18 for the Rigid process.",74388474,"7/19/2018 3:17:39 PM"
"SM-AL040-5-18 for the Rigid process.",74388473,"7/19/2018 3:17:39 PM"
"SM-AL040-5-18 for the Rigid process.",74388476,"7/19/2018 3:17:40 PM"
"SM-AL040-18-12 for the Rigid process.",74388478,"7/19/2018 3:17:52 PM"
"SM-AL040PC-18-24 for the Rigid process.",74388481,"7/19/2018 3:18:49 PM"
"SM-AL040-6-12 for the Rigid process.",74388483,"7/19/2018 3:19:31 PM"
"SM-AL040PC-18-24 for the Rigid process.",74388487,"7/19/2018 3:19:58 PM"
"SM-AL040-30-18 for the Rigid process.",74388500,"7/19/2018 3:28:56 PM"
"AC-ACC-2E-33.5-Bag for the Retractable Banners process.",74388514,"7/19/2018 3:36:04 PM"
"SM-AL040-5-18 for the Rigid process.",74388515,"7/19/2018 3:36:28 PM"
"SM-AL040-24-36 for the Rigid process.",74388527,"7/19/2018 3:43:17 PM"
"SM-AL040PC-6-24 for the Rigid process.",74388530,"7/19/2018 3:46:20 PM"
"SM-AL040-6-12 for the Rigid process.",74388537,"7/19/2018 3:48:16 PM"
"SM-AL040-12-9 for the Rigid process.",74388539,"7/19/2018 3:48:40 PM"
"SM-AL040-6-24 for the Rigid process.",74388545,"7/19/2018 3:49:48 PM"
"OA-FinishingFee for the Outsourced process.",74388547,"7/19/2018 3:50:42 PM"
"SM-RFAL040-24-30 for the Rigid process.",74388549,"7/19/2018 3:51:24 PM"
"SM-AL040-18-12 for the Rigid process.",74388554,"7/19/2018 3:53:11 PM"
"SM-AL040-18-12 for the Rigid process.",74388557,"7/19/2018 3:54:53 PM"
"SM-AL040-6-24 for the Rigid process.",74388576,"7/19/2018 3:59:33 PM"
"SM-AL040-6-12 for the Rigid process.",74388578,"7/19/2018 4:00:18 PM"
"SM-AL040-6-12 for the Rigid process.",74388582,"7/19/2018 4:01:09 PM"
"SM-AL040-24-18 for the Rigid process.",74388584,"7/19/2018 4:01:23 PM"
"SM-FF-158.48-33.46 for the Fabrics process.",74388587,"7/19/2018 4:03:00 PM"
"SM-AL040-18-12 for the Rigid process.",74388589,"7/19/2018 4:03:13 PM"
"SM-AL040-24-36 for the Rigid process.",74388590,"7/19/2018 4:03:42 PM"
"SM-AL040-18-24 for the Rigid process.",74388592,"7/19/2018 4:04:24 PM"
"SM-AL040-18-12 for the Rigid process.",74388594,"7/19/2018 4:04:54 PM"
"SM-AL040-6-24 for the Rigid process.",74388606,"7/19/2018 4:10:28 PM"
"SM-AL040-24-18 for the Rigid process.",74388609,"7/19/2018 4:11:07 PM"
"SM-RFAL040-24-30 for the Rigid process.",74388613,"7/19/2018 4:11:53 PM"
"SM-AL040-18-12 for the Rigid process.",74388618,"7/19/2018 4:16:07 PM"
"SM-AL040PC-18-24 for the Rigid process.",74388627,"7/19/2018 4:18:34 PM"
"SM-RFAL080-18-12 for the Rigid process.",74388637,"7/19/2018 4:22:27 PM"
"OA-SignDesignServiceFee for the Outsourced process.",74388639,"7/19/2018 4:22:53 PM"
"SM-AL040-6-12 for the Rigid process.",74388641,"7/19/2018 4:23:31 PM"
"SM-AL040-18-24 for the Rigid process.",74388644,"7/19/2018 4:24:02 PM"
"SM-AL040-18-12 for the Rigid process.",74388645,"7/19/2018 4:24:52 PM"
"SM-AL040-6-12 for the Rigid process.",74388663,"7/19/2018 4:31:57 PM"
"SM-AL040-6-12 for the Rigid process.",74388666,"7/19/2018 4:32:51 PM"
"SM-RFAL040-18-12 for the Rigid process.",74388667,"7/19/2018 4:33:12 PM"
"SM-AL040PC-30-24 for the Rigid process.",74388671,"7/19/2018 4:34:17 PM"
"SM-AL040-6-24 for the Rigid process.",74388672,"7/19/2018 4:34:27 PM"
"SM-AL040-30-24 for the Rigid process.",74388678,"7/19/2018 4:39:43 PM"
"SM-RFAL040-30-24 for the Rigid process.",74388679,"7/19/2018 4:40:58 PM"
"SM-RFAL080-5-18 for the Rigid process.",74388680,"7/19/2018 4:41:55 PM"
"SM-AL040-6-12 for the Rigid process.",74388687,"7/19/2018 4:44:23 PM"
"SM-AL040-6-12 for the Rigid process.",74388688,"7/19/2018 4:44:47 PM"
"SM-AL040-6-24 for the Rigid process.",74388690,"7/19/2018 4:45:35 PM"
"SM-AL040-30-24 for the Rigid process.",74388697,"7/19/2018 4:49:30 PM"
"SM-AL040-14-20 for the Rigid process.",74388711,"7/19/2018 5:03:37 PM"
"SM-AL040PC-24-24 for the Rigid process.",74388715,"7/19/2018 5:06:47 PM"
"SM-AL040PC-30-24 for the Rigid process.",74388723,"7/19/2018 5:13:45 PM"
"SM-AL040-6-12 for the Rigid process.",74388724,"7/19/2018 5:14:06 PM"
"SM-AL040PC-18-24 for the Rigid process.",74388726,"7/19/2018 5:14:30 PM"
"SH-PC61-L-UltramarineBlue for the Shirts process.",21379533,"7/19/2018 5:15:25 PM"
"SM-AL040-30-24 for the Rigid process.",74388730,"7/19/2018 5:17:07 PM"
"SM-RFAL040-30-24 for the Rigid process.",74388731,"7/19/2018 5:17:49 PM"
"SM-RFAL040-18-24 for the Rigid process.",74388737,"7/19/2018 5:21:52 PM"
"SM-AL040-18-24 for the Rigid process.",74388741,"7/19/2018 5:23:18 PM"
"SM-RFAL040-18-12 for the Rigid process.",74388750,"7/19/2018 5:32:21 PM"
"SM-AL063PC-24-24 for the Rigid process.",74388752,"7/19/2018 5:33:08 PM"
"SM-AL040-12-9 for the Rigid process.",74388753,"7/19/2018 5:33:12 PM"
"SM-AL040-6-12 for the Rigid process.",74388754,"7/19/2018 5:33:29 PM"
"SM-AL040-6-12 for the Rigid process.",74388757,"7/19/2018 5:35:16 PM"
"SM-AL040-6-12 for the Rigid process.",74388765,"7/19/2018 5:41:14 PM"
"SM-AL040-6-12 for the Rigid process.",74388766,"7/19/2018 5:41:18 PM"
"SM-AL040-6-12 for the Rigid process.",74388767,"7/19/2018 5:42:21 PM"
"SM-AL040-18-12 for the Rigid process.",74388773,"7/19/2018 5:46:44 PM"
"SM-AL040-12-18 for the Rigid process.",74388775,"7/19/2018 5:48:05 PM"
"OA-SignDesignServiceFee for the Outsourced process.",74388777,"7/19/2018 5:48:56 PM"
"SM-AL040-6-12 for the Rigid process.",74388781,"7/19/2018 5:50:11 PM"
"SM-AL040-6-12 for the Rigid process.",74388782,"7/19/2018 5:51:46 PM"
"SM-AL040-18-12 for the Rigid process.",74388783,"7/19/2018 5:52:14 PM"
"SM-AL040-6-24 for the Rigid process.",74388785,"7/19/2018 5:53:58 PM"
"SM-RFAL040-18-30 for the Rigid process.",74388787,"7/19/2018 5:54:16 PM"
"SM-AL040-18-12 for the Rigid process.",74388792,"7/19/2018 6:00:42 PM"
"SM-AL040-6-12 for the Rigid process.",74388799,"7/19/2018 6:05:29 PM"
"SM-RFAL080-24-18 for the Rigid process.",74388800,"7/19/2018 6:05:40 PM"
"SM-AL040PC-30-24 for the Rigid process.",74388801,"7/19/2018 6:06:15 PM"
"SM-AL040-5-18 for the Rigid process.",74388802,"7/19/2018 6:06:45 PM"
"SM-AL040-5-18 for the Rigid process.",74388807,"7/19/2018 6:09:35 PM"
"SM-RFAL040-6-24 for the Rigid process.",74388808,"7/19/2018 6:10:28 PM"
"SM-AL040-6-12 for the Rigid process.",74388812,"7/19/2018 6:14:34 PM"
"SM-FM-5.52-3.68 for the Indigo process.",74388815,"7/19/2018 6:16:31 PM"
"SM-AL040-24-36 for the Rigid process.",74388819,"7/19/2018 6:18:06 PM"
"SM-AL040-18-24 for the Rigid process.",74388827,"7/19/2018 6:27:14 PM"
"SM-AL040-18-12 for the Rigid process.",74388832,"7/19/2018 6:28:38 PM"
"SM-AL040PC-18-24 for the Rigid process.",74388833,"7/19/2018 6:29:01 PM"
"SM-AL040-5-18 for the Rigid process.",74388834,"7/19/2018 6:29:51 PM"
"SM-RFAL040-18-12 for the Rigid process.",74388837,"7/19/2018 6:30:31 PM"
"SM-AL040-24-18 for the Rigid process.",74388838,"7/19/2018 6:30:59 PM"
"OA-FinishingFee for the Outsourced process.",74388842,"7/19/2018 6:36:08 PM"
"SM-AL040-6-12 for the Rigid process.",74388843,"7/19/2018 6:37:08 PM"
"SM-AL040-6-12 for the Rigid process.",74388844,"7/19/2018 6:37:46 PM"
"SM-RFAL040-18-24 for the Rigid process.",74388846,"7/19/2018 6:40:19 PM"
"SM-AL040-12-18 for the Rigid process.",74388848,"7/19/2018 6:42:16 PM"
"SM-AL040-12-18 for the Rigid process.",74388851,"7/19/2018 6:44:02 PM"
"SM-AL040PC-6-24 for the Rigid process.",74388859,"7/19/2018 6:55:34 PM"
"SM-AL040PC-30-24 for the Rigid process.",74388861,"7/19/2018 6:56:00 PM"
"SM-RFAL080-5-18 for the Rigid process.",74388863,"7/19/2018 6:59:38 PM"
"SM-FM-3.68-5.52 for the Indigo process.",74388864,"7/19/2018 7:00:01 PM"
"SM-AL040-6-12 for the Rigid process.",74388867,"7/19/2018 7:03:01 PM"
"SM-AL040PC-18-30 for the Rigid process.",74388873,"7/19/2018 7:04:15 PM"
"SM-AL040-6-12 for the Rigid process.",74388877,"7/19/2018 7:07:35 PM"
"SM-AL040-6-12 for the Rigid process.",74388887,"7/19/2018 7:11:31 PM"
"SM-AL040-6-12 for the Rigid process.",74388893,"7/19/2018 7:24:59 PM"
"SM-AL040-6-18 for the Rigid process.",74388896,"7/19/2018 7:26:00 PM"
"SM-AL040-10-14 for the Rigid process.",74388899,"7/19/2018 7:27:13 PM"
"SM-AL040PC-30-24 for the Rigid process.",74388901,"7/19/2018 7:27:45 PM"
"SM-AL040-6-12 for the Rigid process.",74388925,"7/19/2018 7:54:19 PM"
"SM-AL040-6-12 for the Rigid process.",74388930,"7/19/2018 7:58:46 PM"
"SM-AL040-24-24 for the Rigid process.",74388935,"7/19/2018 8:07:27 PM"
"SM-AL040-6-12 for the Rigid process.",74388936,"7/19/2018 8:07:38 PM"
"SM-AL040-12-18 for the Rigid process.",74388937,"7/19/2018 8:08:39 PM"
"SM-AL040-12-18 for the Rigid process.",74388941,"7/19/2018 8:16:00 PM"
"SM-AL040-6-12 for the Rigid process.",74388943,"7/19/2018 8:19:00 PM"
"SM-AL040-18-24 for the Rigid process.",74388956,"7/19/2018 8:29:45 PM"
"SM-AL040-6-12 for the Rigid process.",74388957,"7/19/2018 8:30:12 PM"
"SM-RFAL040-18-12 for the Rigid process.",74388960,"7/19/2018 8:32:15 PM"
"SM-AL040-6-12 for the Rigid process.",74388964,"7/19/2018 8:36:57 PM"
"SM-AL040-6-12 for the Rigid process.",74388969,"7/19/2018 8:37:45 PM"
"SM-AL063PC-18-24 for the Rigid process.",74388973,"7/19/2018 8:39:36 PM"
"SM-AL040-6-24 for the Rigid process.",74388977,"7/19/2018 8:43:46 PM"
"SM-AL040-6-12 for the Rigid process.",74388982,"7/19/2018 8:52:32 PM"
"SM-AL040-6-12 for the Rigid process.",74388983,"7/19/2018 8:52:56 PM"
"SM-AL040-6-12 for the Rigid process.",74388990,"7/19/2018 9:04:43 PM"
"SM-AL040-6-12 for the Rigid process.",74388992,"7/19/2018 9:05:34 PM"
"SM-AL040-6-12 for the Rigid process.",74388994,"7/19/2018 9:06:18 PM"
"SM-AL040-6-12 for the Rigid process.",74388995,"7/19/2018 9:07:00 PM"
"SM-AL040PC-18-30 for the Rigid process.",74388996,"7/19/2018 9:07:57 PM"
"SM-AL040-6-12 for the Rigid process.",74389006,"7/19/2018 9:15:25 PM"
"SM-AL040-6-12 for the Rigid process.",74389018,"7/19/2018 9:24:02 PM"
"SM-AL040-18-12 for the Rigid process.",74389035,"7/19/2018 9:45:21 PM"
"SM-FM-3.68-5.52 for the Indigo process.",74389037,"7/19/2018 9:45:46 PM"
"SM-AL040-6-12 for the Rigid process.",74389040,"7/19/2018 9:51:12 PM"
"SM-AL040-6-12 for the Rigid process.",74389050,"7/19/2018 10:05:52 PM"
"SM-AL040-9-12 for the Rigid process.",74389055,"7/19/2018 10:10:24 PM"
"SM-AL040-18-12 for the Rigid process.",74389074,"7/19/2018 10:29:57 PM"
"SM--96-120 for the Fabrics process.",74389082,"7/19/2018 10:45:35 PM"
"SM-AL040-6-12 for the Rigid process.",74389089,"7/19/2018 10:50:42 PM"
"SM-AL040-18-12 for the Rigid process.",74389097,"7/19/2018 11:05:11 PM"
"SM-AL040-5-18 for the Rigid process.",74389101,"7/19/2018 11:11:38 PM"
"SM-AL040-6-12 for the Rigid process.",74389112,"7/19/2018 11:25:37 PM"
"SM-AL040-5-18 for the Rigid process.",74389116,"7/19/2018 11:36:37 PM"
"SM-AL040-18-12 for the Rigid process.",74389119,"7/19/2018 11:51:08 PM"
"SM-AL040-6-12 for the Rigid process.",74389120,"7/19/2018 11:53:58 PM"
"SM-AL040-6-12 for the Rigid process.",74389131,"7/20/2018 12:20:48 AM"
"SM-AL040-6-12 for the Rigid process.",74389136,"7/20/2018 12:39:34 AM"
"SM-AL040-6-12 for the Rigid process.",74389143,"7/20/2018 12:52:34 AM"
"SM-AL040-6-12 for the Rigid process.",74389149,"7/20/2018 1:22:07 AM"
"SM-AL040-6-24 for the Rigid process.",74389153,"7/20/2018 1:39:22 AM"
"SM-AL040PC-30-24 for the Rigid process.",74389154,"7/20/2018 1:47:03 AM"
"SM-RFAL040-5-18 for the Rigid process.",74389156,"7/20/2018 1:49:47 AM"
"SM-AL040-6-12 for the Rigid process.",74389165,"7/20/2018 2:23:40 AM"
"SM-AL040PC-24-30 for the Rigid process.",74389181,"7/20/2018 6:06:07 AM"
"SM-AL040-18-12 for the Rigid process.",74389183,"7/20/2018 6:09:06 AM"
"SM-AL040-6-12 for the Rigid process.",74389198,"7/20/2018 7:09:25 AM"
"SM-AL040PC-6-24 for the Rigid process.",74389199,"7/20/2018 7:13:43 AM"
"SM-AL040-6-12 for the Rigid process.",74389200,"7/20/2018 7:14:30 AM"
"SM-AL040-6-12 for the Rigid process.",74389206,"7/20/2018 7:22:39 AM"
"SM-AL040-6-12 for the Rigid process.",74389207,"7/20/2018 7:26:33 AM"
"SM-AL040PC-30-24 for the Rigid process.",74389208,"7/20/2018 7:26:34 AM"
"SM-AL040-5-18 for the Rigid process.",74389209,"7/20/2018 7:26:50 AM"
"SM-AL040-6-12 for the Rigid process.",74389211,"7/20/2018 7:28:00 AM"
"SM-AL040-6-12 for the Rigid process.",74389213,"7/20/2018 7:28:54 AM"
"SM-AL040-6-18 for the Rigid process.",74389224,"7/20/2018 7:51:46 AM"
"SM-AL040-24-36 for the Rigid process.",74389227,"7/20/2018 7:57:21 AM"
"SM-AL040-5-18 for the Rigid process.",74389237,"7/20/2018 8:07:14 AM"
"AC-NA1234 for the Rigid process.",74389238,"7/20/2018 8:09:20 AM"
"SM-AL040-10-14 for the Rigid process.",74389244,"7/20/2018 8:15:32 AM"
"SM-AL040-18-24 for the Rigid process.",74389253,"7/20/2018 8:22:04 AM"
"SM-AL040-18-12 for the Rigid process.",74389257,"7/20/2018 8:27:56 AM"
"SM-AL040-24-30 for the Rigid process.",74389263,"7/20/2018 8:31:24 AM"
"SM-AL040-18-12 for the Rigid process.",74389266,"7/20/2018 8:35:40 AM"
"SM-AL040PC-18-24 for the Rigid process.",74389267,"7/20/2018 8:36:13 AM"
"SM-AL040-30-24 for the Rigid process.",74389272,"7/20/2018 8:42:58 AM"
"SM-AL040-18-12 for the Rigid process.",74389274,"7/20/2018 8:44:00 AM"
"SM-AL040-6-12 for the Rigid process.",74389279,"7/20/2018 8:51:27 AM"
